# 1 "otherfile.c"
# 1 "<built-in>"
# 1 "<command-line>"
# 31 "<command-line>"
# 1 "/usr/include/stdc-predef.h" 1 3 4
# 32 "<command-line>" 2
# 1 "otherfile.c"

void change_system_clock(int system_clock);


void otherfile_func2(void)
{
  change_system_clock(200);
}
